<?xml version="1.0" encoding="UTF-8" standalone="no"?>
<!-- - - - - - - - - - - - - - - - - - - - - - - - - - - - - - - - - - - - - - -
  -  This file is part of Retaliator.                                          -
  -                                                                            -
  -  Copyright (C) 2013, 2014  Rouven Spreckels  <n3vu0r@nevux.org>            -
  -                                                                            -
  -  Retaliator is free software: you can redistribute it and/or modify        -
  -  it under the terms of the GNU Affero General Public License version 3 as  -
  -  published by the Free Software Foundation on 19 November 2007.            -
  -                                                                            -
  -  Retaliator is distributed in the hope that it will be useful,             -
  -  but WITHOUT ANY WARRANTY; without even the implied warranty of            -
  -  MERCHANTABILITY or FITNESS FOR A PARTICULAR PURPOSE.  See the             -
  -  GNU Affero General Public License for more details.                       -
  -                                                                            -
  -  You should have received a copy of the GNU Affero General Public License  -
  -  along with Retaliator.  If not, see <http://www.gnu.org/licenses/>.       -
  - - - - - - - - - - - - - - - - - - - - - - - - - - - - - - - - - - - - - - -->
<svg xmlns:dc="http://purl.org/dc/elements/1.1/" xmlns:cc="http://creativecommons.org/ns#" xmlns:rdf="http://www.w3.org/1999/02/22-rdf-syntax-ns#" xmlns:svg="http://www.w3.org/2000/svg" xmlns="http://www.w3.org/2000/svg" version="1.1" width="48" height="48" viewBox="0 0 16 16" id="svg2985">
	<defs id="defs2987" />
	<metadata id="metadata2990">
		<rdf:RDF>
			<cc:Work rdf:about="">
				<dc:format>image/svg+xml</dc:format>
				<dc:type rdf:resource="http://purl.org/dc/dcmitype/StillImage" />
				<dc:title />
			</cc:Work>
		</rdf:RDF>
	</metadata>
	<g id="layer1">
		<rect width="9" height="9.5" x="7" y="0" id="rect3765" style="fill:#000000;fill-opacity:1" />
		<path d="m 11.389831,7.5932202 a 6.8135597,6.4406783 0 1 1 -13.6271195,0 6.8135597,6.4406783 0 1 1 13.6271195,0 z" transform="matrix(1.1503466,0,0.24751436,1.2421052,0.8562713,-1.4315781)" id="path2986" style="fill:#000000;fill-opacity:1" />
		<rect width="9.5" height="9" x="0" y="7" id="rect3765-6" style="fill:#000000;fill-opacity:1" />
		<text x="8.3295736" y="10.329284" transform="scale(0.94871393,1.0540585)" id="text2993" xml:space="preserve" style="font-size:37.63007355px;font-style:normal;font-weight:normal;line-height:125%;letter-spacing:0px;word-spacing:0px;fill:#00d300;fill-opacity:1;stroke:none;font-family:Sans">
			<tspan x="8.3295736" y="10.329284" id="tspan2995" style="font-size:7.5260148px;font-weight:normal;text-align:center;text-anchor:middle;fill:#00d300;fill-opacity:1;-inkscape-font-specification:Sans">F29</tspan>
		</text>
	</g>
</svg>
